Use #2: Out of Pipeline • demcrit
…
This produces the following example dataset:

#> # A tibble: 1,218 × 8
#>    id       FAQ  MMSE  MoCA sMoCA  FAQ9 type      PDD
#>    <glue> <dbl> <dbl> <dbl> <dbl> <dbl> <chr>     <lgl>
#>  1 s1         6    29    25    12     2 MMSE (1)  FALSE
#>  2 s1         6    29    25    12     2 MMSE (2)  FALSE
#>  3 s1         6    29    25    12     2 MoCA (1)  FALSE
#>  4 s1         6    29    25    12     2 MoCA (2)  TRUE
#>  5 s1         6    29    25    12     2 sMoCA (1) FALSE
#>  6 s1         6    29    25    12     2 sMoCA (2) TRUE
#>  7 s2        12    24    21     9     3 MMSE (1)  TRUE
#>  8 s2        12    24    21     9     3 MMSE (2)  TRUE
#>  9 s2        12    24    21     9     3 MoCA (1)  TRUE
#> 10 s2        12    24    21     9     3 MoCA (2)  TRUE
#> # ℹ 1,208 more rows
…
